<?xml version="1.0" standalone="no"?>
<!DOCTYPE svg PUBLIC "-//W3C//DTD SVG 1.1//EN" "http://www.w3.org/Graphics/SVG/1.1/DTD/svg11.dtd" >
<svg>
<metadata>
Created by FontForge 20110222 at Thu Aug 27 13:23:21 2015
 By www-data
</metadata>
<defs>
<font id="untitled-font-2" horiz-adv-x="512" >
  <font-face 
    font-family="untitled-font-2"
    font-weight="400"
    font-stretch="normal"
    units-per-em="512"
    panose-1="2 0 5 9 0 0 0 0 0 0"
    ascent="480"
    descent="-32"
    bbox="16 2 503 510"
    underline-thickness="0"
    underline-position="0"
    unicode-range="U+0061-0068"
  />
<missing-glyph 
 />
    <glyph glyph-name=".notdef" 
 />
    <glyph glyph-name=".notdef" 
 />
    <glyph glyph-name=".null" horiz-adv-x="0" 
 />
    <glyph glyph-name="nonmarkingreturn" 
 />
    <glyph glyph-name="b" unicode="b" 
d="M256 375q-28 0 -48 20t-20 47q0 28 20 48t48 20t48 -20t20 -48q0 -27 -20 -47t-48 -20zM256 494q-22 0 -37 -15.5t-15 -37.5q0 -21 15 -36.5t37 -15.5t37 15.5t15 36.5q0 22 -15 37.5t-37 15.5zM390 2q-62 0 -134 23q-72 -23 -134 -23q-52 0 -68 24q-13 21 3 56l2 4l4 1
q40 5 84 20.5t43 37.5v2q10 34 -5 86l-19 -52q-8 -11 -23.5 -30t-43.5 -42t-46 -23q-15 0 -22 13l-3 5l3 5q3 3 18 22.5t33 50t19 47.5v2q48 140 71 140q2 0 4 -1q12 -3 80 -3t80 3h2q1 1 2 1q23 0 71 -140v-2q4 -39 70 -120l3 -5l-3 -5q-8 -13 -22 -13q-18 0 -46 23
t-43.5 42t-23.5 30l-1 2l-18 50l-4 -16t-3 -15t-1 -13.5v-12v-10t0.5 -8t1 -6t1.5 -4.5v-1v-2q-1 -23 44 -39t83 -19l4 -1l2 -4q16 -35 3 -56q-16 -24 -68 -24zM256 41l2 -1q83 -23 132 -23q42 0 54 17q10 13 -2 38q-136 21 -136 72q-11 49 12 115l8 20l33 -90
q25 -32 54 -60t46 -28q4 0 6 2q-1 2 -11.5 16.5t-18 25.5t-17.5 26.5t-16 30t-7 25.5q-14 44 -31 83t-25 44q-13 -3 -83 -3q-71 0 -84 3q-7 -4 -24.5 -44t-30.5 -83q-5 -39 -71 -123q2 -2 6 -2q17 0 46 28t54 60l33 90l8 -20q23 -66 12 -115q0 -18 -17 -32t-42.5 -22
t-43.5 -12t-33 -6q-12 -26 -2 -38q11 -17 54 -17q45 0 132 23h3z" />
    <glyph glyph-name="c" unicode="c" 
d="M268 110h19v-77h-19v77zM171 393h214v-18h-214v18zM217 485h122v-18h-122v18zM239 476h18v-91h-18v91zM299 476h18v-91h-18v91zM278 101q-29 0 -49.5 20.5t-20.5 49.5v214h17v-214q0 -22 15.5 -37t37.5 -15q21 0 36.5 15t15.5 37v214h18v-214q0 -29 -20.5 -49.5
t-49.5 -20.5zM217 333h46v-19h-46v19zM217 287h46v-19h-46v19zM217 241h46v-19h-46v19z" />
    <glyph glyph-name="d" unicode="d" 
d="M257 3h-5q-66 2 -111.5 49t-44.5 113q1 68 48.5 114.5t115.5 45.5q67 -2 112.5 -49t44.5 -113q-1 -72 -49 -116t-111 -44zM256 309q-60 0 -101.5 -41.5t-42.5 -102.5q-1 -60 40 -102t101 -44h5q56 0 99.5 40t44.5 104q1 60 -40 102.5t-102 43.5h-4zM98 141l-18 23
q-33 41 -40.5 101.5t22.5 125.5q28 54 81 86t114 32q22 0 47 -5q74 -17 122 -77t48 -136v-30l-14 26l-6 12q-5 9 -15 25q-40 63 -121 72q-92 11 -167 -61q-46 -45 -58 -102q-6 -29 -1 -63zM257 494q-57 0 -106 -30t-75 -80q-24 -51 -23 -98.5t22 -86.5q0 21 4 38
q11 58 61 108q81 76 181 66q85 -12 131 -80q2 -4 4 -6q-11 60 -53 104t-102 57q-19 8 -44 8zM416 109l3 29q10 100 -66 157q-74 56 -168 17l-28 -11l20 24q61 71 149 58q96 -15 130 -110q24 -73 -22 -140zM258 343q56 0 104 -36q70 -52 73 -138q22 47 4 99q-28 85 -117 100
q-64 9 -112 -31q24 6 48 6zM199 179q-5 0 -8 1q-6 1 -11 4t-8.5 7t-6 7.5t-3.5 5.5l-2 3l14 6q7 -15 21 -17q16 -3 41 19l10 -11q-25 -25 -47 -25zM314 179q-22 0 -48 25l10 11q25 -23 41 -19q6 1 11.5 5.5t7.5 8.5l2 3l14 -6q0 -1 -3 -6.5t-11 -12t-17 -8.5q-2 -1 -7 -1z
" />
    <glyph glyph-name="e" unicode="e" 
d="M164 97h-67v225h67v-225zM113 113h35v193h-35v-193zM421 97h-67v225h67v-225zM370 113h36v193h-36v-193zM361 189h-203v40h203v-40zM173 205h173v9h-173v-9zM102 136h-48v148h48v-148zM70 152h17v116h-17v-116zM464 136h-48v148h48v-148zM432 152h18v116h-18v-116z
M503 189h-44v40h44v-40zM473 205h13v9h-13v-9zM60 189h-44v40h44v-40zM32 205h13v9h-13v-9z" />
    <glyph glyph-name="f" unicode="f" 
d="M287 15h-57v1l-16 1q-46 2 -71 5h-6q-7 0 -21 2q-23 3 -39 19.5t-17 39.5q-1 33 19 58q13 17 39 23q34 7 57 11q66 11 98 21q45 12 88 10q49 -1 82 -24q32 -22 38 -51q9 -39 -20 -74q-26 -27 -66 -33q-32 -7 -78 -7q-10 -2 -30 -2zM249 34h38h30q41 0 75 6q36 6 55 28
q24 26 17 56q-7 25 -31 40q-29 19 -72 20q-39 2 -81 -9q-54 -13 -101 -20q-8 -1 -56 -12q-20 -5 -30 -16q-15 -17 -13 -44q1 -16 11.5 -28t27.5 -14q6 -1 19 -1h7q48 -2 71 -4zM220 206h-22q-38 1 -67 12q-34 14 -41 40q-12 41 18 74q26 29 71 32q32 2 106 -14
q59 -14 79 -19q16 -4 35 -16q31 -16 30 -56q-2 -25 -25 -37q-18 -8 -47 -12q-32 -4 -73 -4h-12h-8v-1h-8h-17q-8 1 -19 1zM189 347h-10q-37 -2 -58 -25q-24 -25 -13 -57q6 -18 29 -28q22 -10 61 -12h40h8v1h26h11q39 0 70 4q28 4 41 11q14 8 15 20q1 28 -20 39q-16 9 -33 14
q-14 5 -76 20q-56 13 -91 13zM201 366h-1q-1 0 -3.5 0.5t-3.5 0.5q-14 2 -21 4q-39 11 -31 52t49 47q19 4 47 11q34 9 37 9l4 2q28 5 33 5h3q22 -1 40 -13.5t25 -31.5q6 -22 1 -40q-6 -19 -26 -28q-16 -6 -40 -8q-20 -2 -30 -2q-28 -2 -43 -4q-9 -1 -25 -3zM311 478
q-9 0 -29 -4l-3 -1q-3 0 -37 -9q-40 -10 -48 -11q-29 -4 -34 -33q-4 -25 17 -31q9 -3 19 -3q1 0 3 -0.5t4 -0.5l11 1q5 0 13 1t13 2q28 2 43 4q20 2 30 2q24 2 35 7q12 6 16 16q5 15 -2 27q-10 31 -47 33h-4z" />
    <glyph glyph-name="g" unicode="g" 
d="M396 72h-18v160q0 125 -47 145l-5 2v77q0 8 -9 8h-85q-8 0 -8 -8v-78l-5 -2q-46 -24 -46 -143v-151h-18v150q0 125 51 156v68q0 10 7 17.5t18 7.5h86q11 0 18.5 -7t7.5 -18v-66q53 -27 53 -159v-159zM318 195h-85q-11 0 -18 7.5t-7 17.5v236q0 10 7 17.5t18 7.5h85
q11 0 18.5 -7t7.5 -18v-237q0 -10 -7.5 -17t-18.5 -7zM233 464q-8 0 -8 -8v-237q0 -8 8 -8h85q9 0 9 8v237q0 8 -9 8h-85z" />
    <glyph glyph-name="a" unicode="a" 
d="M488 408q0 21 -21 26q-8 2 -13 -1q-3 -1 -7.5 -3.5t-8 -4t-6.5 -3.5q-24 -12 -36 -20q-7 -4 -17 -4h-7q-15 2 -47 4l-14 1q-6 0 -18.5 1.5t-19.5 2.5q-5 1 -16 2t-16 1q-9 0 -26 1.5t-25 2.5l-10 1q-6 0 -18 2q-15 2 -43 4h-3q-2 0 -8 0.5t-8 0.5q-8 0 -12 -1
q-35 -6 -54 -33t-15 -57q5 -29 26.5 -49.5t49.5 -22.5q4 0 5 -4q11 -29 12 -57q3 -37 -4 -93q-6 -33 26 -48q8 -4 26 -4h1q25 0 38 23q6 10 6 30v131v26l16 2q7 1 19 2t22 2t19 2l16 2q50 6 76 9h3q1 0 3.5 0.5t3.5 0.5q4 0 10 -2q26 -15 46 -24q3 -2 9 -4.5t8 -3.5
q1 -1 2 -1q2 -1 3 -1q11 -1 19.5 6.5t8.5 18.5q-1 41 -1 136zM392 380q0 4 3 5q21 9 51 27l12 6q2 1 5 1q9 0 9 -9v-9v-74v-53q0 -6 -4 -9q-4 -2 -5 -2q-3 0 -4 1q-9 4 -30 15.5t-34 17.5q-3 1 -3 5v78zM189 223v-122q0 -18 -12 -27q-1 0 -1 -0.5t-1 -0.5q-7 -4 -17 -4
q-28 0 -35 22q-2 5 0 15q0 1 1 3v2q9 71 -1 120q-2 13 -10 32q-1 1 -2 3.5t-1 3.5q-2 5 -9 5q-13 -3 -29 7q-19 10 -29 28.5t-7 38.5q4 23 19 37.5t37 17.5q3 1 7.5 1t10 -0.5t8.5 -0.5h6q32 -2 48 -4l15 -1q22 -2 32 -3q7 0 20 -1t20 -2q6 -1 19 -2t19 -1q22 -2 34 -3
q5 -1 14.5 -2t14.5 -1l14 -1v-86l-126 -13q-7 -1 -20 -2.5t-19 -1.5h-5q-4 0 -6 -1q-9 -1 -11 -11v-3zM103 273zM147 355h-12h-46q-9 0 -10 -7q0 -2 2 -6q2 -2 7 -2h30h30q6 0 8 3q2 2 2 6q-3 6 -11 6zM148 335h-61q-4 0 -6 -2t-2 -6q0 -9 9 -9h12h36h12q10 0 10 9q0 2 -2 6
q-2 2 -8 2zM147 375h-11h-48q-4 0 -8 -2q-2 -2 -2 -5q0 -9 9 -9h30h29q6 0 8 3q2 4 2 6q1 4 -1.5 5.5t-7.5 1.5z" />
    <glyph glyph-name="h" unicode="h" 
d="M142 80q-12 0 -20 9l-12 12q-79 80 -79 89q0 5 1 6q4 11 13 11q5 0 10 -4q4 -3 12 -7l12 -6q2 -1 6.5 -3t6.5 -3h2q1 -1 4 -2t5.5 -2.5t4.5 -2.5q12 -6 20 -1q7 4 14 14q2 3 6.5 9.5t6.5 10.5l3 5l30 -10l39 103h-19l9 13q6 9 9 18q8 25 27 34q2 1 6 2t5 1t2.5 0.5
t2.5 0.5h1h1q34 20 87 30q6 1 16 1q6 0 9 -5l90 -90l8 -8l6 -7l-8 -5q-11 -6 -25 -9q-10 -2 -28 -2q-72 0 -99 9q-13 3 -27 0v-5q0 -7 -2 -17q-2 -11 -19.5 -32.5t-26.5 -27.5q-59 -41 -79 -100q-3 -11 -10 -20q-9 -9 -21 -9zM46 190q12 -18 74 -77q2 -3 5 -6l5 -5t2 -3
q10 -10 21 1q3 3 7 15q22 66 85 107q6 4 22 23t18 27q0 3 0.5 7.5t1.5 7.5l1 5q2 11 10 12q21 5 36 0q26 -8 95 -8q20 0 24 2l12 3l-90 90q-8 0 -13 -1q-48 -6 -80 -28q-4 -2 -6 -2q-3 -1 -6 -1q-2 -1 -5 -1t-4 -1q-12 -5 -18 -23q-1 -6 -4 -11h13l-52 -139l-33 11
q-2 -4 -5.5 -9.5t-4.5 -6.5q-9 -12 -20 -18q-15 -8 -35 1l-12 6l-2 1q-8 4 -12 5q-6 4 -16 8.5t-14 7.5zM222 326l56 -7q-53 -58 -77 -129l-61 18l14 20q15 20 36 49.5t32 48.5z" />
  </font>
</defs></svg>
