"Name","Email","Phone","inquiry_at"
"donovan guzman","Donovan.GUZM9309@hushmail.com","(424) 852-0831","2017-03-18"
"angeline holland","Angelin.HOLLAN8684@live.com","(707) 552-1545","2017-04-30"
"nickolas britt","Nickol.BRIT6298@gmail.com","(708) 627-0953","2017-05-10"
"giuliana emerson","Giuliana.EME2461@live.com","(318) 310-2199","2017-06-18"
"summer thornton","Summer.THORNTO3494@gmail.com","(814) 996-6536","2017-09-19"
"damaris garrison","Dama.GARRISON4293@mail2web.com","(325) 769-0998","2017-07-29"
"madison atkins","Madison.ATKI4152@live.com","(607) 773-0318","2017-08-21"
"carissa flynn","Carissa.FLYNN8151@hushmail.com","(228) 309-6177","2017-04-27"
"kellan hess","Kellan.HESS9977@yahoo.com","(816) 260-9361","2017-04-11"
"nolan larson","No.LARS7401@mail2web.com","(559) 283-9877","2017-07-25"
"lauren stark","Lau.STARK4402@hushmail.com","(671) 579-3870","2017-02-01"
"terry morrison","Terry.MORRISON2067@hushmail.com","(952) 112-0896","2017-08-11"
"isaias gaines","Isaias.GAI6821@gmail.com","(938) 156-0602","2017-03-30"
"mustafa gill","Mustafa.GIL7130@mail2web.com","(802) 516-7291","2017-03-09"
"braeden reeves","Braeden.REE5095@hushmail.com","(747) 827-4609","2017-02-22"
"macy justice","Mac.JUS8383@gmail.com","(707) 370-4818","2017-09-01"
"willie orr","Willie.OR6980@hushmail.com","(347) 287-8190","2017-04-09"
"karen combs","Kare.COM3284@yahoo.com","(848) 210-4521","2017-04-02"
"connor maxwell","Conn.MAXW6087@yahoo.com","(787) 371-5540","2017-02-28"
"maurice bates","Mauri.BATE7653@mail2web.com","(701) 383-3594","2017-08-15"
"brady mcdaniel","Br.MCDA5315@gmail.com","(908) 731-3664","2017-08-17"
"lilianna dale","Lilianna.DA3914@mail2web.com","(813) 533-5959","2017-07-27"
"sterling nash","Sterlin.NAS3290@hushmail.com","(810) 414-9127","2017-01-19"
"lexi herring","Lexi.HERRI4018@live.com","(312) 138-8180","2017-04-19"
"mercedes rollins","Mercede.ROLLIN3312@hushmail.com","(630) 413-5468","2017-05-11"
"taryn bartlett","Tary.BARTLE9481@gmail.com","(570) 210-9805","2017-03-01"
"elliana price","Ellian.PRICE5086@mail2web.com","(310) 437-3601","2017-03-27"
"noah taylor","Noa.TAYLOR5382@hushmail.com","(859) 261-1726","2017-03-26"
"demetrius chaney","Demet.CHANE9431@gmail.com","(989) 424-1840","2017-08-02"
"saul mejia","Sa.ME5704@hushmail.com","(410) 705-5421","2017-08-15"
"annie stafford","Anni.STAFFO6304@yahoo.com","(430) 511-3913","2017-08-31"
"savannah le","Sava.LE2529@gmail.com","(914) 845-1029","2017-08-16"
"hudson vance","Hudson.VA4559@live.com","(801) 246-1584","2017-07-06"
"tripp stephens","Tri.STEPHE5460@yahoo.com","(347) 603-0122","2017-05-11"
"lance guerra","Lan.GUE3615@yahoo.com","(938) 382-5732","2017-01-07"
"maya carroll","Maya.CAR3219@live.com","(479) 439-5373","2017-07-22"
"felicity curtis","Feli.CUR7352@yahoo.com","(321) 414-0017","2017-07-09"
"pierce fields","Pier.FIE7938@hushmail.com","(718) 186-6186","2017-01-05"
"xavi flores","Xavi.FLORE6515@live.com","(630) 725-6594","2017-09-25"
"blake bernard","Bla.BERNA8458@gmail.com","(773) 768-0249","2017-04-16"
